q1_tb.vcd
$date
	Tue Sep 13 08:56:09 2022
$end
$version
	Icarus Verilog
$end
$timescale
	1ns
$end
$scope module q1_tb $end
$var wire 1 ! g $end
$var wire 1 " f $end
$var reg 1 # a $end
$var reg 1 $ b $end
$var reg 1 % c $end
$var reg 1 & d $end
$scope module qx1 $end
$var wire 1 # a $end
$var wire 1 $ b $end
$var wire 1 % c $end
$var wire 1 & d $end
$var wire 1 " f $end
$var wire 1 ! g $end
$upscope $end
$upscope $end
$enddefinitions $end
#0
$dumpvars
0&
0%
0$
0#
1"
1!
$end
#20
1&
#40
0!
0"
0&
1%
#60
1!
1"
1&
#80
0&
0%
1$
#100
1&
#120
0!
0"
0&
1%
#140
1!
1"
1&
#160
0!
0"
0&
0%
0$
1#
#180
1&
#200
0&
1%
#220
1&
#240
1!
1"
0&
0%
1$
#260
1&
#280
0!
0"
0&
1%
#300
1!
1"
1&
